90
v0
0
0
v1
1
0
v2
2
0
v3
3
0
v4
4
0
v5
5
0
v6
6
0
v7
7
0
v8
8
0
v9
9
0
v10
10
0
v11
11
0
v12
12
0
v13
13
0
v14
14
0
v15
15
0
v16
16
0
v17
17
0
v18
18
0
v19
19
0
v20
20
0
v21
21
0
v22
22
0
v23
23
0
v24
24
0
v25
25
0
v26
26
0
v27
27
0
v28
28
0
v29
29
0
v30
30
0
v31
31
0
v32
32
0
v33
33
0
v34
34
0
v35
35
0
v36
36
0
v37
37
0
v38
38
0
v39
39
0
v40
40
0
v41
41
0
v42
42
0
v43
43
0
v44
44
0
v45
45
0
v46
46
0
v47
47
0
v48
48
0
v49
49
0
v50
50
0
v51
51
0
v52
52
0
v53
53
0
v54
54
0
v55
55
0
v56
56
0
v57
57
0
v58
58
0
v59
59
0
v60
60
0
v61
61
0
v62
62
0
v63
63
0
v64
64
0
v65
65
0
v66
66
0
v67
67
0
v68
68
0
v69
69
0
v70
70
0
v71
71
0
v72
72
0
v73
73
0
v74
74
0
v75
75
0
v76
76
0
v77
77
0
v78
78
0
v79
79
0
v80
80
0
v81
81
0
v82
82
0
v83
83
0
v84
84
0
v85
85
0
v86
86
0
v87
87
0
v88
88
0
v89
89
0

4005
v0
v1
0
v0
v2
0
v0
v3
0
v0
v4
0
v0
v5
0
v0
v6
0
v0
v7
0
v0
v8
0
v0
v9
0
v0
v10
0
v0
v11
0
v0
v12
0
v0
v13
0
v0
v14
0
v0
v15
0
v0
v16
0
v0
v17
0
v0
v18
0
v0
v19
0
v0
v20
0
v0
v21
0
v0
v22
0
v0
v23
0
v0
v24
0
v0
v25
0
v0
v26
0
v0
v27
0
v0
v28
0
v0
v29
0
v0
v30
0
v0
v31
0
v0
v32
0
v0
v33
0
v0
v34
0
v0
v35
0
v0
v36
0
v0
v37
0
v0
v38
0
v0
v39
0
v0
v40
0
v0
v41
0
v0
v42
0
v0
v43
0
v0
v44
0
v0
v45
0
v0
v46
0
v0
v47
0
v0
v48
0
v0
v49
0
v0
v50
0
v0
v51
0
v0
v52
0
v0
v53
0
v0
v54
0
v0
v55
0
v0
v56
0
v0
v57
0
v0
v58
0
v0
v59
0
v0
v60
0
v0
v61
0
v0
v62
0
v0
v63
0
v0
v64
0
v0
v65
0
v0
v66
0
v0
v67
0
v0
v68
0
v0
v69
0
v0
v70
0
v0
v71
0
v0
v72
0
v0
v73
0
v0
v74
0
v0
v75
0
v0
v76
0
v0
v77
0
v0
v78
0
v0
v79
0
v0
v80
0
v0
v81
0
v0
v82
0
v0
v83
0
v0
v84
0
v0
v85
0
v0
v86
0
v0
v87
0
v0
v88
0
v0
v89
0
v1
v2
0
v1
v3
0
v1
v4
0
v1
v5
0
v1
v6
0
v1
v7
0
v1
v8
0
v1
v9
0
v1
v10
0
v1
v11
0
v1
v12
0
v1
v13
0
v1
v14
0
v1
v15
0
v1
v16
0
v1
v17
0
v1
v18
0
v1
v19
0
v1
v20
0
v1
v21
0
v1
v22
0
v1
v23
0
v1
v24
0
v1
v25
0
v1
v26
0
v1
v27
0
v1
v28
0
v1
v29
0
v1
v30
0
v1
v31
0
v1
v32
0
v1
v33
0
v1
v34
0
v1
v35
0
v1
v36
0
v1
v37
0
v1
v38
0
v1
v39
0
v1
v40
0
v1
v41
0
v1
v42
0
v1
v43
0
v1
v44
0
v1
v45
0
v1
v46
0
v1
v47
0
v1
v48
0
v1
v49
0
v1
v50
0
v1
v51
0
v1
v52
0
v1
v53
0
v1
v54
0
v1
v55
0
v1
v56
0
v1
v57
0
v1
v58
0
v1
v59
0
v1
v60
0
v1
v61
0
v1
v62
0
v1
v63
0
v1
v64
0
v1
v65
0
v1
v66
0
v1
v67
0
v1
v68
0
v1
v69
0
v1
v70
0
v1
v71
0
v1
v72
0
v1
v73
0
v1
v74
0
v1
v75
0
v1
v76
0
v1
v77
0
v1
v78
0
v1
v79
0
v1
v80
0
v1
v81
0
v1
v82
0
v1
v83
0
v1
v84
0
v1
v85
0
v1
v86
0
v1
v87
0
v1
v88
0
v1
v89
0
v2
v3
0
v2
v4
0
v2
v5
0
v2
v6
0
v2
v7
0
v2
v8
0
v2
v9
0
v2
v10
0
v2
v11
0
v2
v12
0
v2
v13
0
v2
v14
0
v2
v15
0
v2
v16
0
v2
v17
0
v2
v18
0
v2
v19
0
v2
v20
0
v2
v21
0
v2
v22
0
v2
v23
0
v2
v24
0
v2
v25
0
v2
v26
0
v2
v27
0
v2
v28
0
v2
v29
0
v2
v30
0
v2
v31
0
v2
v32
0
v2
v33
0
v2
v34
0
v2
v35
0
v2
v36
0
v2
v37
0
v2
v38
0
v2
v39
0
v2
v40
0
v2
v41
0
v2
v42
0
v2
v43
0
v2
v44
0
v2
v45
0
v2
v46
0
v2
v47
0
v2
v48
0
v2
v49
0
v2
v50
0
v2
v51
0
v2
v52
0
v2
v53
0
v2
v54
0
v2
v55
0
v2
v56
0
v2
v57
0
v2
v58
0
v2
v59
0
v2
v60
0
v2
v61
0
v2
v62
0
v2
v63
0
v2
v64
0
v2
v65
0
v2
v66
0
v2
v67
0
v2
v68
0
v2
v69
0
v2
v70
0
v2
v71
0
v2
v72
0
v2
v73
0
v2
v74
0
v2
v75
0
v2
v76
0
v2
v77
0
v2
v78
0
v2
v79
0
v2
v80
0
v2
v81
0
v2
v82
0
v2
v83
0
v2
v84
0
v2
v85
0
v2
v86
0
v2
v87
0
v2
v88
0
v2
v89
0
v3
v4
0
v3
v5
0
v3
v6
0
v3
v7
0
v3
v8
0
v3
v9
0
v3
v10
0
v3
v11
0
v3
v12
0
v3
v13
0
v3
v14
0
v3
v15
0
v3
v16
0
v3
v17
0
v3
v18
0
v3
v19
0
v3
v20
0
v3
v21
0
v3
v22
0
v3
v23
0
v3
v24
0
v3
v25
0
v3
v26
0
v3
v27
0
v3
v28
0
v3
v29
0
v3
v30
0
v3
v31
0
v3
v32
0
v3
v33
0
v3
v34
0
v3
v35
0
v3
v36
0
v3
v37
0
v3
v38
0
v3
v39
0
v3
v40
0
v3
v41
0
v3
v42
0
v3
v43
0
v3
v44
0
v3
v45
0
v3
v46
0
v3
v47
0
v3
v48
0
v3
v49
0
v3
v50
0
v3
v51
0
v3
v52
0
v3
v53
0
v3
v54
0
v3
v55
0
v3
v56
0
v3
v57
0
v3
v58
0
v3
v59
0
v3
v60
0
v3
v61
0
v3
v62
0
v3
v63
0
v3
v64
0
v3
v65
0
v3
v66
0
v3
v67
0
v3
v68
0
v3
v69
0
v3
v70
0
v3
v71
0
v3
v72
0
v3
v73
0
v3
v74
0
v3
v75
0
v3
v76
0
v3
v77
0
v3
v78
0
v3
v79
0
v3
v80
0
v3
v81
0
v3
v82
0
v3
v83
0
v3
v84
0
v3
v85
0
v3
v86
0
v3
v87
0
v3
v88
0
v3
v89
0
v4
v5
0
v4
v6
0
v4
v7
0
v4
v8
0
v4
v9
0
v4
v10
0
v4
v11
0
v4
v12
0
v4
v13
0
v4
v14
0
v4
v15
0
v4
v16
0
v4
v17
0
v4
v18
0
v4
v19
0
v4
v20
0
v4
v21
0
v4
v22
0
v4
v23
0
v4
v24
0
v4
v25
0
v4
v26
0
v4
v27
0
v4
v28
0
v4
v29
0
v4
v30
0
v4
v31
0
v4
v32
0
v4
v33
0
v4
v34
0
v4
v35
0
v4
v36
0
v4
v37
0
v4
v38
0
v4
v39
0
v4
v40
0
v4
v41
0
v4
v42
0
v4
v43
0
v4
v44
0
v4
v45
0
v4
v46
0
v4
v47
0
v4
v48
0
v4
v49
0
v4
v50
0
v4
v51
0
v4
v52
0
v4
v53
0
v4
v54
0
v4
v55
0
v4
v56
0
v4
v57
0
v4
v58
0
v4
v59
0
v4
v60
0
v4
v61
0
v4
v62
0
v4
v63
0
v4
v64
0
v4
v65
0
v4
v66
0
v4
v67
0
v4
v68
0
v4
v69
0
v4
v70
0
v4
v71
0
v4
v72
0
v4
v73
0
v4
v74
0
v4
v75
0
v4
v76
0
v4
v77
0
v4
v78
0
v4
v79
0
v4
v80
0
v4
v81
0
v4
v82
0
v4
v83
0
v4
v84
0
v4
v85
0
v4
v86
0
v4
v87
0
v4
v88
0
v4
v89
0
v5
v6
0
v5
v7
0
v5
v8
0
v5
v9
0
v5
v10
0
v5
v11
0
v5
v12
0
v5
v13
0
v5
v14
0
v5
v15
0
v5
v16
0
v5
v17
0
v5
v18
0
v5
v19
0
v5
v20
0
v5
v21
0
v5
v22
0
v5
v23
0
v5
v24
0
v5
v25
0
v5
v26
0
v5
v27
0
v5
v28
0
v5
v29
0
v5
v30
0
v5
v31
0
v5
v32
0
v5
v33
0
v5
v34
0
v5
v35
0
v5
v36
0
v5
v37
0
v5
v38
0
v5
v39
0
v5
v40
0
v5
v41
0
v5
v42
0
v5
v43
0
v5
v44
0
v5
v45
0
v5
v46
0
v5
v47
0
v5
v48
0
v5
v49
0
v5
v50
0
v5
v51
0
v5
v52
0
v5
v53
0
v5
v54
0
v5
v55
0
v5
v56
0
v5
v57
0
v5
v58
0
v5
v59
0
v5
v60
0
v5
v61
0
v5
v62
0
v5
v63
0
v5
v64
0
v5
v65
0
v5
v66
0
v5
v67
0
v5
v68
0
v5
v69
0
v5
v70
0
v5
v71
0
v5
v72
0
v5
v73
0
v5
v74
0
v5
v75
0
v5
v76
0
v5
v77
0
v5
v78
0
v5
v79
0
v5
v80
0
v5
v81
0
v5
v82
0
v5
v83
0
v5
v84
0
v5
v85
0
v5
v86
0
v5
v87
0
v5
v88
0
v5
v89
0
v6
v7
0
v6
v8
0
v6
v9
0
v6
v10
0
v6
v11
0
v6
v12
0
v6
v13
0
v6
v14
0
v6
v15
0
v6
v16
0
v6
v17
0
v6
v18
0
v6
v19
0
v6
v20
0
v6
v21
0
v6
v22
0
v6
v23
0
v6
v24
0
v6
v25
0
v6
v26
0
v6
v27
0
v6
v28
0
v6
v29
0
v6
v30
0
v6
v31
0
v6
v32
0
v6
v33
0
v6
v34
0
v6
v35
0
v6
v36
0
v6
v37
0
v6
v38
0
v6
v39
0
v6
v40
0
v6
v41
0
v6
v42
0
v6
v43
0
v6
v44
0
v6
v45
0
v6
v46
0
v6
v47
0
v6
v48
0
v6
v49
0
v6
v50
0
v6
v51
0
v6
v52
0
v6
v53
0
v6
v54
0
v6
v55
0
v6
v56
0
v6
v57
0
v6
v58
0
v6
v59
0
v6
v60
0
v6
v61
0
v6
v62
0
v6
v63
0
v6
v64
0
v6
v65
0
v6
v66
0
v6
v67
0
v6
v68
0
v6
v69
0
v6
v70
0
v6
v71
0
v6
v72
0
v6
v73
0
v6
v74
0
v6
v75
0
v6
v76
0
v6
v77
0
v6
v78
0
v6
v79
0
v6
v80
0
v6
v81
0
v6
v82
0
v6
v83
0
v6
v84
0
v6
v85
0
v6
v86
0
v6
v87
0
v6
v88
0
v6
v89
0
v7
v8
0
v7
v9
0
v7
v10
0
v7
v11
0
v7
v12
0
v7
v13
0
v7
v14
0
v7
v15
0
v7
v16
0
v7
v17
0
v7
v18
0
v7
v19
0
v7
v20
0
v7
v21
0
v7
v22
0
v7
v23
0
v7
v24
0
v7
v25
0
v7
v26
0
v7
v27
0
v7
v28
0
v7
v29
0
v7
v30
0
v7
v31
0
v7
v32
0
v7
v33
0
v7
v34
0
v7
v35
0
v7
v36
0
v7
v37
0
v7
v38
0
v7
v39
0
v7
v40
0
v7
v41
0
v7
v42
0
v7
v43
0
v7
v44
0
v7
v45
0
v7
v46
0
v7
v47
0
v7
v48
0
v7
v49
0
v7
v50
0
v7
v51
0
v7
v52
0
v7
v53
0
v7
v54
0
v7
v55
0
v7
v56
0
v7
v57
0
v7
v58
0
v7
v59
0
v7
v60
0
v7
v61
0
v7
v62
0
v7
v63
0
v7
v64
0
v7
v65
0
v7
v66
0
v7
v67
0
v7
v68
0
v7
v69
0
v7
v70
0
v7
v71
0
v7
v72
0
v7
v73
0
v7
v74
0
v7
v75
0
v7
v76
0
v7
v77
0
v7
v78
0
v7
v79
0
v7
v80
0
v7
v81
0
v7
v82
0
v7
v83
0
v7
v84
0
v7
v85
0
v7
v86
0
v7
v87
0
v7
v88
0
v7
v89
0
v8
v9
0
v8
v10
0
v8
v11
0
v8
v12
0
v8
v13
0
v8
v14
0
v8
v15
0
v8
v16
0
v8
v17
0
v8
v18
0
v8
v19
0
v8
v20
0
v8
v21
0
v8
v22
0
v8
v23
0
v8
v24
0
v8
v25
0
v8
v26
0
v8
v27
0
v8
v28
0
v8
v29
0
v8
v30
0
v8
v31
0
v8
v32
0
v8
v33
0
v8
v34
0
v8
v35
0
v8
v36
0
v8
v37
0
v8
v38
0
v8
v39
0
v8
v40
0
v8
v41
0
v8
v42
0
v8
v43
0
v8
v44
0
v8
v45
0
v8
v46
0
v8
v47
0
v8
v48
0
v8
v49
0
v8
v50
0
v8
v51
0
v8
v52
0
v8
v53
0
v8
v54
0
v8
v55
0
v8
v56
0
v8
v57
0
v8
v58
0
v8
v59
0
v8
v60
0
v8
v61
0
v8
v62
0
v8
v63
0
v8
v64
0
v8
v65
0
v8
v66
0
v8
v67
0
v8
v68
0
v8
v69
0
v8
v70
0
v8
v71
0
v8
v72
0
v8
v73
0
v8
v74
0
v8
v75
0
v8
v76
0
v8
v77
0
v8
v78
0
v8
v79
0
v8
v80
0
v8
v81
0
v8
v82
0
v8
v83
0
v8
v84
0
v8
v85
0
v8
v86
0
v8
v87
0
v8
v88
0
v8
v89
0
v9
v10
0
v9
v11
0
v9
v12
0
v9
v13
0
v9
v14
0
v9
v15
0
v9
v16
0
v9
v17
0
v9
v18
0
v9
v19
0
v9
v20
0
v9
v21
0
v9
v22
0
v9
v23
0
v9
v24
0
v9
v25
0
v9
v26
0
v9
v27
0
v9
v28
0
v9
v29
0
v9
v30
0
v9
v31
0
v9
v32
0
v9
v33
0
v9
v34
0
v9
v35
0
v9
v36
0
v9
v37
0
v9
v38
0
v9
v39
0
v9
v40
0
v9
v41
0
v9
v42
0
v9
v43
0
v9
v44
0
v9
v45
0
v9
v46
0
v9
v47
0
v9
v48
0
v9
v49
0
v9
v50
0
v9
v51
0
v9
v52
0
v9
v53
0
v9
v54
0
v9
v55
0
v9
v56
0
v9
v57
0
v9
v58
0
v9
v59
0
v9
v60
0
v9
v61
0
v9
v62
0
v9
v63
0
v9
v64
0
v9
v65
0
v9
v66
0
v9
v67
0
v9
v68
0
v9
v69
0
v9
v70
0
v9
v71
0
v9
v72
0
v9
v73
0
v9
v74
0
v9
v75
0
v9
v76
0
v9
v77
0
v9
v78
0
v9
v79
0
v9
v80
0
v9
v81
0
v9
v82
0
v9
v83
0
v9
v84
0
v9
v85
0
v9
v86
0
v9
v87
0
v9
v88
0
v9
v89
0
v10
v11
0
v10
v12
0
v10
v13
0
v10
v14
0
v10
v15
0
v10
v16
0
v10
v17
0
v10
v18
0
v10
v19
0
v10
v20
0
v10
v21
0
v10
v22
0
v10
v23
0
v10
v24
0
v10
v25
0
v10
v26
0
v10
v27
0
v10
v28
0
v10
v29
0
v10
v30
0
v10
v31
0
v10
v32
0
v10
v33
0
v10
v34
0
v10
v35
0
v10
v36
0
v10
v37
0
v10
v38
0
v10
v39
0
v10
v40
0
v10
v41
0
v10
v42
0
v10
v43
0
v10
v44
0
v10
v45
0
v10
v46
0
v10
v47
0
v10
v48
0
v10
v49
0
v10
v50
0
v10
v51
0
v10
v52
0
v10
v53
0
v10
v54
0
v10
v55
0
v10
v56
0
v10
v57
0
v10
v58
0
v10
v59
0
v10
v60
0
v10
v61
0
v10
v62
0
v10
v63
0
v10
v64
0
v10
v65
0
v10
v66
0
v10
v67
0
v10
v68
0
v10
v69
0
v10
v70
0
v10
v71
0
v10
v72
0
v10
v73
0
v10
v74
0
v10
v75
0
v10
v76
0
v10
v77
0
v10
v78
0
v10
v79
0
v10
v80
0
v10
v81
0
v10
v82
0
v10
v83
0
v10
v84
0
v10
v85
0
v10
v86
0
v10
v87
0
v10
v88
0
v10
v89
0
v11
v12
0
v11
v13
0
v11
v14
0
v11
v15
0
v11
v16
0
v11
v17
0
v11
v18
0
v11
v19
0
v11
v20
0
v11
v21
0
v11
v22
0
v11
v23
0
v11
v24
0
v11
v25
0
v11
v26
0
v11
v27
0
v11
v28
0
v11
v29
0
v11
v30
0
v11
v31
0
v11
v32
0
v11
v33
0
v11
v34
0
v11
v35
0
v11
v36
0
v11
v37
0
v11
v38
0
v11
v39
0
v11
v40
0
v11
v41
0
v11
v42
0
v11
v43
0
v11
v44
0
v11
v45
0
v11
v46
0
v11
v47
0
v11
v48
0
v11
v49
0
v11
v50
0
v11
v51
0
v11
v52
0
v11
v53
0
v11
v54
0
v11
v55
0
v11
v56
0
v11
v57
0
v11
v58
0
v11
v59
0
v11
v60
0
v11
v61
0
v11
v62
0
v11
v63
0
v11
v64
0
v11
v65
0
v11
v66
0
v11
v67
0
v11
v68
0
v11
v69
0
v11
v70
0
v11
v71
0
v11
v72
0
v11
v73
0
v11
v74
0
v11
v75
0
v11
v76
0
v11
v77
0
v11
v78
0
v11
v79
0
v11
v80
0
v11
v81
0
v11
v82
0
v11
v83
0
v11
v84
0
v11
v85
0
v11
v86
0
v11
v87
0
v11
v88
0
v11
v89
0
v12
v13
0
v12
v14
0
v12
v15
0
v12
v16
0
v12
v17
0
v12
v18
0
v12
v19
0
v12
v20
0
v12
v21
0
v12
v22
0
v12
v23
0
v12
v24
0
v12
v25
0
v12
v26
0
v12
v27
0
v12
v28
0
v12
v29
0
v12
v30
0
v12
v31
0
v12
v32
0
v12
v33
0
v12
v34
0
v12
v35
0
v12
v36
0
v12
v37
0
v12
v38
0
v12
v39
0
v12
v40
0
v12
v41
0
v12
v42
0
v12
v43
0
v12
v44
0
v12
v45
0
v12
v46
0
v12
v47
0
v12
v48
0
v12
v49
0
v12
v50
0
v12
v51
0
v12
v52
0
v12
v53
0
v12
v54
0
v12
v55
0
v12
v56
0
v12
v57
0
v12
v58
0
v12
v59
0
v12
v60
0
v12
v61
0
v12
v62
0
v12
v63
0
v12
v64
0
v12
v65
0
v12
v66
0
v12
v67
0
v12
v68
0
v12
v69
0
v12
v70
0
v12
v71
0
v12
v72
0
v12
v73
0
v12
v74
0
v12
v75
0
v12
v76
0
v12
v77
0
v12
v78
0
v12
v79
0
v12
v80
0
v12
v81
0
v12
v82
0
v12
v83
0
v12
v84
0
v12
v85
0
v12
v86
0
v12
v87
0
v12
v88
0
v12
v89
0
v13
v14
0
v13
v15
0
v13
v16
0
v13
v17
0
v13
v18
0
v13
v19
0
v13
v20
0
v13
v21
0
v13
v22
0
v13
v23
0
v13
v24
0
v13
v25
0
v13
v26
0
v13
v27
0
v13
v28
0
v13
v29
0
v13
v30
0
v13
v31
0
v13
v32
0
v13
v33
0
v13
v34
0
v13
v35
0
v13
v36
0
v13
v37
0
v13
v38
0
v13
v39
0
v13
v40
0
v13
v41
0
v13
v42
0
v13
v43
0
v13
v44
0
v13
v45
0
v13
v46
0
v13
v47
0
v13
v48
0
v13
v49
0
v13
v50
0
v13
v51
0
v13
v52
0
v13
v53
0
v13
v54
0
v13
v55
0
v13
v56
0
v13
v57
0
v13
v58
0
v13
v59
0
v13
v60
0
v13
v61
0
v13
v62
0
v13
v63
0
v13
v64
0
v13
v65
0
v13
v66
0
v13
v67
0
v13
v68
0
v13
v69
0
v13
v70
0
v13
v71
0
v13
v72
0
v13
v73
0
v13
v74
0
v13
v75
0
v13
v76
0
v13
v77
0
v13
v78
0
v13
v79
0
v13
v80
0
v13
v81
0
v13
v82
0
v13
v83
0
v13
v84
0
v13
v85
0
v13
v86
0
v13
v87
0
v13
v88
0
v13
v89
0
v14
v15
0
v14
v16
0
v14
v17
0
v14
v18
0
v14
v19
0
v14
v20
0
v14
v21
0
v14
v22
0
v14
v23
0
v14
v24
0
v14
v25
0
v14
v26
0
v14
v27
0
v14
v28
0
v14
v29
0
v14
v30
0
v14
v31
0
v14
v32
0
v14
v33
0
v14
v34
0
v14
v35
0
v14
v36
0
v14
v37
0
v14
v38
0
v14
v39
0
v14
v40
0
v14
v41
0
v14
v42
0
v14
v43
0
v14
v44
0
v14
v45
0
v14
v46
0
v14
v47
0
v14
v48
0
v14
v49
0
v14
v50
0
v14
v51
0
v14
v52
0
v14
v53
0
v14
v54
0
v14
v55
0
v14
v56
0
v14
v57
0
v14
v58
0
v14
v59
0
v14
v60
0
v14
v61
0
v14
v62
0
v14
v63
0
v14
v64
0
v14
v65
0
v14
v66
0
v14
v67
0
v14
v68
0
v14
v69
0
v14
v70
0
v14
v71
0
v14
v72
0
v14
v73
0
v14
v74
0
v14
v75
0
v14
v76
0
v14
v77
0
v14
v78
0
v14
v79
0
v14
v80
0
v14
v81
0
v14
v82
0
v14
v83
0
v14
v84
0
v14
v85
0
v14
v86
0
v14
v87
0
v14
v88
0
v14
v89
0
v15
v16
0
v15
v17
0
v15
v18
0
v15
v19
0
v15
v20
0
v15
v21
0
v15
v22
0
v15
v23
0
v15
v24
0
v15
v25
0
v15
v26
0
v15
v27
0
v15
v28
0
v15
v29
0
v15
v30
0
v15
v31
0
v15
v32
0
v15
v33
0
v15
v34
0
v15
v35
0
v15
v36
0
v15
v37
0
v15
v38
0
v15
v39
0
v15
v40
0
v15
v41
0
v15
v42
0
v15
v43
0
v15
v44
0
v15
v45
0
v15
v46
0
v15
v47
0
v15
v48
0
v15
v49
0
v15
v50
0
v15
v51
0
v15
v52
0
v15
v53
0
v15
v54
0
v15
v55
0
v15
v56
0
v15
v57
0
v15
v58
0
v15
v59
0
v15
v60
0
v15
v61
0
v15
v62
0
v15
v63
0
v15
v64
0
v15
v65
0
v15
v66
0
v15
v67
0
v15
v68
0
v15
v69
0
v15
v70
0
v15
v71
0
v15
v72
0
v15
v73
0
v15
v74
0
v15
v75
0
v15
v76
0
v15
v77
0
v15
v78
0
v15
v79
0
v15
v80
0
v15
v81
0
v15
v82
0
v15
v83
0
v15
v84
0
v15
v85
0
v15
v86
0
v15
v87
0
v15
v88
0
v15
v89
0
v16
v17
0
v16
v18
0
v16
v19
0
v16
v20
0
v16
v21
0
v16
v22
0
v16
v23
0
v16
v24
0
v16
v25
0
v16
v26
0
v16
v27
0
v16
v28
0
v16
v29
0
v16
v30
0
v16
v31
0
v16
v32
0
v16
v33
0
v16
v34
0
v16
v35
0
v16
v36
0
v16
v37
0
v16
v38
0
v16
v39
0
v16
v40
0
v16
v41
0
v16
v42
0
v16
v43
0
v16
v44
0
v16
v45
0
v16
v46
0
v16
v47
0
v16
v48
0
v16
v49
0
v16
v50
0
v16
v51
0
v16
v52
0
v16
v53
0
v16
v54
0
v16
v55
0
v16
v56
0
v16
v57
0
v16
v58
0
v16
v59
0
v16
v60
0
v16
v61
0
v16
v62
0
v16
v63
0
v16
v64
0
v16
v65
0
v16
v66
0
v16
v67
0
v16
v68
0
v16
v69
0
v16
v70
0
v16
v71
0
v16
v72
0
v16
v73
0
v16
v74
0
v16
v75
0
v16
v76
0
v16
v77
0
v16
v78
0
v16
v79
0
v16
v80
0
v16
v81
0
v16
v82
0
v16
v83
0
v16
v84
0
v16
v85
0
v16
v86
0
v16
v87
0
v16
v88
0
v16
v89
0
v17
v18
0
v17
v19
0
v17
v20
0
v17
v21
0
v17
v22
0
v17
v23
0
v17
v24
0
v17
v25
0
v17
v26
0
v17
v27
0
v17
v28
0
v17
v29
0
v17
v30
0
v17
v31
0
v17
v32
0
v17
v33
0
v17
v34
0
v17
v35
0
v17
v36
0
v17
v37
0
v17
v38
0
v17
v39
0
v17
v40
0
v17
v41
0
v17
v42
0
v17
v43
0
v17
v44
0
v17
v45
0
v17
v46
0
v17
v47
0
v17
v48
0
v17
v49
0
v17
v50
0
v17
v51
0
v17
v52
0
v17
v53
0
v17
v54
0
v17
v55
0
v17
v56
0
v17
v57
0
v17
v58
0
v17
v59
0
v17
v60
0
v17
v61
0
v17
v62
0
v17
v63
0
v17
v64
0
v17
v65
0
v17
v66
0
v17
v67
0
v17
v68
0
v17
v69
0
v17
v70
0
v17
v71
0
v17
v72
0
v17
v73
0
v17
v74
0
v17
v75
0
v17
v76
0
v17
v77
0
v17
v78
0
v17
v79
0
v17
v80
0
v17
v81
0
v17
v82
0
v17
v83
0
v17
v84
0
v17
v85
0
v17
v86
0
v17
v87
0
v17
v88
0
v17
v89
0
v18
v19
0
v18
v20
0
v18
v21
0
v18
v22
0
v18
v23
0
v18
v24
0
v18
v25
0
v18
v26
0
v18
v27
0
v18
v28
0
v18
v29
0
v18
v30
0
v18
v31
0
v18
v32
0
v18
v33
0
v18
v34
0
v18
v35
0
v18
v36
0
v18
v37
0
v18
v38
0
v18
v39
0
v18
v40
0
v18
v41
0
v18
v42
0
v18
v43
0
v18
v44
0
v18
v45
0
v18
v46
0
v18
v47
0
v18
v48
0
v18
v49
0
v18
v50
0
v18
v51
0
v18
v52
0
v18
v53
0
v18
v54
0
v18
v55
0
v18
v56
0
v18
v57
0
v18
v58
0
v18
v59
0
v18
v60
0
v18
v61
0
v18
v62
0
v18
v63
0
v18
v64
0
v18
v65
0
v18
v66
0
v18
v67
0
v18
v68
0
v18
v69
0
v18
v70
0
v18
v71
0
v18
v72
0
v18
v73
0
v18
v74
0
v18
v75
0
v18
v76
0
v18
v77
0
v18
v78
0
v18
v79
0
v18
v80
0
v18
v81
0
v18
v82
0
v18
v83
0
v18
v84
0
v18
v85
0
v18
v86
0
v18
v87
0
v18
v88
0
v18
v89
0
v19
v20
0
v19
v21
0
v19
v22
0
v19
v23
0
v19
v24
0
v19
v25
0
v19
v26
0
v19
v27
0
v19
v28
0
v19
v29
0
v19
v30
0
v19
v31
0
v19
v32
0
v19
v33
0
v19
v34
0
v19
v35
0
v19
v36
0
v19
v37
0
v19
v38
0
v19
v39
0
v19
v40
0
v19
v41
0
v19
v42
0
v19
v43
0
v19
v44
0
v19
v45
0
v19
v46
0
v19
v47
0
v19
v48
0
v19
v49
0
v19
v50
0
v19
v51
0
v19
v52
0
v19
v53
0
v19
v54
0
v19
v55
0
v19
v56
0
v19
v57
0
v19
v58
0
v19
v59
0
v19
v60
0
v19
v61
0
v19
v62
0
v19
v63
0
v19
v64
0
v19
v65
0
v19
v66
0
v19
v67
0
v19
v68
0
v19
v69
0
v19
v70
0
v19
v71
0
v19
v72
0
v19
v73
0
v19
v74
0
v19
v75
0
v19
v76
0
v19
v77
0
v19
v78
0
v19
v79
0
v19
v80
0
v19
v81
0
v19
v82
0
v19
v83
0
v19
v84
0
v19
v85
0
v19
v86
0
v19
v87
0
v19
v88
0
v19
v89
0
v20
v21
0
v20
v22
0
v20
v23
0
v20
v24
0
v20
v25
0
v20
v26
0
v20
v27
0
v20
v28
0
v20
v29
0
v20
v30
0
v20
v31
0
v20
v32
0
v20
v33
0
v20
v34
0
v20
v35
0
v20
v36
0
v20
v37
0
v20
v38
0
v20
v39
0
v20
v40
0
v20
v41
0
v20
v42
0
v20
v43
0
v20
v44
0
v20
v45
0
v20
v46
0
v20
v47
0
v20
v48
0
v20
v49
0
v20
v50
0
v20
v51
0
v20
v52
0
v20
v53
0
v20
v54
0
v20
v55
0
v20
v56
0
v20
v57
0
v20
v58
0
v20
v59
0
v20
v60
0
v20
v61
0
v20
v62
0
v20
v63
0
v20
v64
0
v20
v65
0
v20
v66
0
v20
v67
0
v20
v68
0
v20
v69
0
v20
v70
0
v20
v71
0
v20
v72
0
v20
v73
0
v20
v74
0
v20
v75
0
v20
v76
0
v20
v77
0
v20
v78
0
v20
v79
0
v20
v80
0
v20
v81
0
v20
v82
0
v20
v83
0
v20
v84
0
v20
v85
0
v20
v86
0
v20
v87
0
v20
v88
0
v20
v89
0
v21
v22
0
v21
v23
0
v21
v24
0
v21
v25
0
v21
v26
0
v21
v27
0
v21
v28
0
v21
v29
0
v21
v30
0
v21
v31
0
v21
v32
0
v21
v33
0
v21
v34
0
v21
v35
0
v21
v36
0
v21
v37
0
v21
v38
0
v21
v39
0
v21
v40
0
v21
v41
0
v21
v42
0
v21
v43
0
v21
v44
0
v21
v45
0
v21
v46
0
v21
v47
0
v21
v48
0
v21
v49
0
v21
v50
0
v21
v51
0
v21
v52
0
v21
v53
0
v21
v54
0
v21
v55
0
v21
v56
0
v21
v57
0
v21
v58
0
v21
v59
0
v21
v60
0
v21
v61
0
v21
v62
0
v21
v63
0
v21
v64
0
v21
v65
0
v21
v66
0
v21
v67
0
v21
v68
0
v21
v69
0
v21
v70
0
v21
v71
0
v21
v72
0
v21
v73
0
v21
v74
0
v21
v75
0
v21
v76
0
v21
v77
0
v21
v78
0
v21
v79
0
v21
v80
0
v21
v81
0
v21
v82
0
v21
v83
0
v21
v84
0
v21
v85
0
v21
v86
0
v21
v87
0
v21
v88
0
v21
v89
0
v22
v23
0
v22
v24
0
v22
v25
0
v22
v26
0
v22
v27
0
v22
v28
0
v22
v29
0
v22
v30
0
v22
v31
0
v22
v32
0
v22
v33
0
v22
v34
0
v22
v35
0
v22
v36
0
v22
v37
0
v22
v38
0
v22
v39
0
v22
v40
0
v22
v41
0
v22
v42
0
v22
v43
0
v22
v44
0
v22
v45
0
v22
v46
0
v22
v47
0
v22
v48
0
v22
v49
0
v22
v50
0
v22
v51
0
v22
v52
0
v22
v53
0
v22
v54
0
v22
v55
0
v22
v56
0
v22
v57
0
v22
v58
0
v22
v59
0
v22
v60
0
v22
v61
0
v22
v62
0
v22
v63
0
v22
v64
0
v22
v65
0
v22
v66
0
v22
v67
0
v22
v68
0
v22
v69
0
v22
v70
0
v22
v71
0
v22
v72
0
v22
v73
0
v22
v74
0
v22
v75
0
v22
v76
0
v22
v77
0
v22
v78
0
v22
v79
0
v22
v80
0
v22
v81
0
v22
v82
0
v22
v83
0
v22
v84
0
v22
v85
0
v22
v86
0
v22
v87
0
v22
v88
0
v22
v89
0
v23
v24
0
v23
v25
0
v23
v26
0
v23
v27
0
v23
v28
0
v23
v29
0
v23
v30
0
v23
v31
0
v23
v32
0
v23
v33
0
v23
v34
0
v23
v35
0
v23
v36
0
v23
v37
0
v23
v38
0
v23
v39
0
v23
v40
0
v23
v41
0
v23
v42
0
v23
v43
0
v23
v44
0
v23
v45
0
v23
v46
0
v23
v47
0
v23
v48
0
v23
v49
0
v23
v50
0
v23
v51
0
v23
v52
0
v23
v53
0
v23
v54
0
v23
v55
0
v23
v56
0
v23
v57
0
v23
v58
0
v23
v59
0
v23
v60
0
v23
v61
0
v23
v62
0
v23
v63
0
v23
v64
0
v23
v65
0
v23
v66
0
v23
v67
0
v23
v68
0
v23
v69
0
v23
v70
0
v23
v71
0
v23
v72
0
v23
v73
0
v23
v74
0
v23
v75
0
v23
v76
0
v23
v77
0
v23
v78
0
v23
v79
0
v23
v80
0
v23
v81
0
v23
v82
0
v23
v83
0
v23
v84
0
v23
v85
0
v23
v86
0
v23
v87
0
v23
v88
0
v23
v89
0
v24
v25
0
v24
v26
0
v24
v27
0
v24
v28
0
v24
v29
0
v24
v30
0
v24
v31
0
v24
v32
0
v24
v33
0
v24
v34
0
v24
v35
0
v24
v36
0
v24
v37
0
v24
v38
0
v24
v39
0
v24
v40
0
v24
v41
0
v24
v42
0
v24
v43
0
v24
v44
0
v24
v45
0
v24
v46
0
v24
v47
0
v24
v48
0
v24
v49
0
v24
v50
0
v24
v51
0
v24
v52
0
v24
v53
0
v24
v54
0
v24
v55
0
v24
v56
0
v24
v57
0
v24
v58
0
v24
v59
0
v24
v60
0
v24
v61
0
v24
v62
0
v24
v63
0
v24
v64
0
v24
v65
0
v24
v66
0
v24
v67
0
v24
v68
0
v24
v69
0
v24
v70
0
v24
v71
0
v24
v72
0
v24
v73
0
v24
v74
0
v24
v75
0
v24
v76
0
v24
v77
0
v24
v78
0
v24
v79
0
v24
v80
0
v24
v81
0
v24
v82
0
v24
v83
0
v24
v84
0
v24
v85
0
v24
v86
0
v24
v87
0
v24
v88
0
v24
v89
0
v25
v26
0
v25
v27
0
v25
v28
0
v25
v29
0
v25
v30
0
v25
v31
0
v25
v32
0
v25
v33
0
v25
v34
0
v25
v35
0
v25
v36
0
v25
v37
0
v25
v38
0
v25
v39
0
v25
v40
0
v25
v41
0
v25
v42
0
v25
v43
0
v25
v44
0
v25
v45
0
v25
v46
0
v25
v47
0
v25
v48
0
v25
v49
0
v25
v50
0
v25
v51
0
v25
v52
0
v25
v53
0
v25
v54
0
v25
v55
0
v25
v56
0
v25
v57
0
v25
v58
0
v25
v59
0
v25
v60
0
v25
v61
0
v25
v62
0
v25
v63
0
v25
v64
0
v25
v65
0
v25
v66
0
v25
v67
0
v25
v68
0
v25
v69
0
v25
v70
0
v25
v71
0
v25
v72
0
v25
v73
0
v25
v74
0
v25
v75
0
v25
v76
0
v25
v77
0
v25
v78
0
v25
v79
0
v25
v80
0
v25
v81
0
v25
v82
0
v25
v83
0
v25
v84
0
v25
v85
0
v25
v86
0
v25
v87
0
v25
v88
0
v25
v89
0
v26
v27
0
v26
v28
0
v26
v29
0
v26
v30
0
v26
v31
0
v26
v32
0
v26
v33
0
v26
v34
0
v26
v35
0
v26
v36
0
v26
v37
0
v26
v38
0
v26
v39
0
v26
v40
0
v26
v41
0
v26
v42
0
v26
v43
0
v26
v44
0
v26
v45
0
v26
v46
0
v26
v47
0
v26
v48
0
v26
v49
0
v26
v50
0
v26
v51
0
v26
v52
0
v26
v53
0
v26
v54
0
v26
v55
0
v26
v56
0
v26
v57
0
v26
v58
0
v26
v59
0
v26
v60
0
v26
v61
0
v26
v62
0
v26
v63
0
v26
v64
0
v26
v65
0
v26
v66
0
v26
v67
0
v26
v68
0
v26
v69
0
v26
v70
0
v26
v71
0
v26
v72
0
v26
v73
0
v26
v74
0
v26
v75
0
v26
v76
0
v26
v77
0
v26
v78
0
v26
v79
0
v26
v80
0
v26
v81
0
v26
v82
0
v26
v83
0
v26
v84
0
v26
v85
0
v26
v86
0
v26
v87
0
v26
v88
0
v26
v89
0
v27
v28
0
v27
v29
0
v27
v30
0
v27
v31
0
v27
v32
0
v27
v33
0
v27
v34
0
v27
v35
0
v27
v36
0
v27
v37
0
v27
v38
0
v27
v39
0
v27
v40
0
v27
v41
0
v27
v42
0
v27
v43
0
v27
v44
0
v27
v45
0
v27
v46
0
v27
v47
0
v27
v48
0
v27
v49
0
v27
v50
0
v27
v51
0
v27
v52
0
v27
v53
0
v27
v54
0
v27
v55
0
v27
v56
0
v27
v57
0
v27
v58
0
v27
v59
0
v27
v60
0
v27
v61
0
v27
v62
0
v27
v63
0
v27
v64
0
v27
v65
0
v27
v66
0
v27
v67
0
v27
v68
0
v27
v69
0
v27
v70
0
v27
v71
0
v27
v72
0
v27
v73
0
v27
v74
0
v27
v75
0
v27
v76
0
v27
v77
0
v27
v78
0
v27
v79
0
v27
v80
0
v27
v81
0
v27
v82
0
v27
v83
0
v27
v84
0
v27
v85
0
v27
v86
0
v27
v87
0
v27
v88
0
v27
v89
0
v28
v29
0
v28
v30
0
v28
v31
0
v28
v32
0
v28
v33
0
v28
v34
0
v28
v35
0
v28
v36
0
v28
v37
0
v28
v38
0
v28
v39
0
v28
v40
0
v28
v41
0
v28
v42
0
v28
v43
0
v28
v44
0
v28
v45
0
v28
v46
0
v28
v47
0
v28
v48
0
v28
v49
0
v28
v50
0
v28
v51
0
v28
v52
0
v28
v53
0
v28
v54
0
v28
v55
0
v28
v56
0
v28
v57
0
v28
v58
0
v28
v59
0
v28
v60
0
v28
v61
0
v28
v62
0
v28
v63
0
v28
v64
0
v28
v65
0
v28
v66
0
v28
v67
0
v28
v68
0
v28
v69
0
v28
v70
0
v28
v71
0
v28
v72
0
v28
v73
0
v28
v74
0
v28
v75
0
v28
v76
0
v28
v77
0
v28
v78
0
v28
v79
0
v28
v80
0
v28
v81
0
v28
v82
0
v28
v83
0
v28
v84
0
v28
v85
0
v28
v86
0
v28
v87
0
v28
v88
0
v28
v89
0
v29
v30
0
v29
v31
0
v29
v32
0
v29
v33
0
v29
v34
0
v29
v35
0
v29
v36
0
v29
v37
0
v29
v38
0
v29
v39
0
v29
v40
0
v29
v41
0
v29
v42
0
v29
v43
0
v29
v44
0
v29
v45
0
v29
v46
0
v29
v47
0
v29
v48
0
v29
v49
0
v29
v50
0
v29
v51
0
v29
v52
0
v29
v53
0
v29
v54
0
v29
v55
0
v29
v56
0
v29
v57
0
v29
v58
0
v29
v59
0
v29
v60
0
v29
v61
0
v29
v62
0
v29
v63
0
v29
v64
0
v29
v65
0
v29
v66
0
v29
v67
0
v29
v68
0
v29
v69
0
v29
v70
0
v29
v71
0
v29
v72
0
v29
v73
0
v29
v74
0
v29
v75
0
v29
v76
0
v29
v77
0
v29
v78
0
v29
v79
0
v29
v80
0
v29
v81
0
v29
v82
0
v29
v83
0
v29
v84
0
v29
v85
0
v29
v86
0
v29
v87
0
v29
v88
0
v29
v89
0
v30
v31
0
v30
v32
0
v30
v33
0
v30
v34
0
v30
v35
0
v30
v36
0
v30
v37
0
v30
v38
0
v30
v39
0
v30
v40
0
v30
v41
0
v30
v42
0
v30
v43
0
v30
v44
0
v30
v45
0
v30
v46
0
v30
v47
0
v30
v48
0
v30
v49
0
v30
v50
0
v30
v51
0
v30
v52
0
v30
v53
0
v30
v54
0
v30
v55
0
v30
v56
0
v30
v57
0
v30
v58
0
v30
v59
0
v30
v60
0
v30
v61
0
v30
v62
0
v30
v63
0
v30
v64
0
v30
v65
0
v30
v66
0
v30
v67
0
v30
v68
0
v30
v69
0
v30
v70
0
v30
v71
0
v30
v72
0
v30
v73
0
v30
v74
0
v30
v75
0
v30
v76
0
v30
v77
0
v30
v78
0
v30
v79
0
v30
v80
0
v30
v81
0
v30
v82
0
v30
v83
0
v30
v84
0
v30
v85
0
v30
v86
0
v30
v87
0
v30
v88
0
v30
v89
0
v31
v32
0
v31
v33
0
v31
v34
0
v31
v35
0
v31
v36
0
v31
v37
0
v31
v38
0
v31
v39
0
v31
v40
0
v31
v41
0
v31
v42
0
v31
v43
0
v31
v44
0
v31
v45
0
v31
v46
0
v31
v47
0
v31
v48
0
v31
v49
0
v31
v50
0
v31
v51
0
v31
v52
0
v31
v53
0
v31
v54
0
v31
v55
0
v31
v56
0
v31
v57
0
v31
v58
0
v31
v59
0
v31
v60
0
v31
v61
0
v31
v62
0
v31
v63
0
v31
v64
0
v31
v65
0
v31
v66
0
v31
v67
0
v31
v68
0
v31
v69
0
v31
v70
0
v31
v71
0
v31
v72
0
v31
v73
0
v31
v74
0
v31
v75
0
v31
v76
0
v31
v77
0
v31
v78
0
v31
v79
0
v31
v80
0
v31
v81
0
v31
v82
0
v31
v83
0
v31
v84
0
v31
v85
0
v31
v86
0
v31
v87
0
v31
v88
0
v31
v89
0
v32
v33
0
v32
v34
0
v32
v35
0
v32
v36
0
v32
v37
0
v32
v38
0
v32
v39
0
v32
v40
0
v32
v41
0
v32
v42
0
v32
v43
0
v32
v44
0
v32
v45
0
v32
v46
0
v32
v47
0
v32
v48
0
v32
v49
0
v32
v50
0
v32
v51
0
v32
v52
0
v32
v53
0
v32
v54
0
v32
v55
0
v32
v56
0
v32
v57
0
v32
v58
0
v32
v59
0
v32
v60
0
v32
v61
0
v32
v62
0
v32
v63
0
v32
v64
0
v32
v65
0
v32
v66
0
v32
v67
0
v32
v68
0
v32
v69
0
v32
v70
0
v32
v71
0
v32
v72
0
v32
v73
0
v32
v74
0
v32
v75
0
v32
v76
0
v32
v77
0
v32
v78
0
v32
v79
0
v32
v80
0
v32
v81
0
v32
v82
0
v32
v83
0
v32
v84
0
v32
v85
0
v32
v86
0
v32
v87
0
v32
v88
0
v32
v89
0
v33
v34
0
v33
v35
0
v33
v36
0
v33
v37
0
v33
v38
0
v33
v39
0
v33
v40
0
v33
v41
0
v33
v42
0
v33
v43
0
v33
v44
0
v33
v45
0
v33
v46
0
v33
v47
0
v33
v48
0
v33
v49
0
v33
v50
0
v33
v51
0
v33
v52
0
v33
v53
0
v33
v54
0
v33
v55
0
v33
v56
0
v33
v57
0
v33
v58
0
v33
v59
0
v33
v60
0
v33
v61
0
v33
v62
0
v33
v63
0
v33
v64
0
v33
v65
0
v33
v66
0
v33
v67
0
v33
v68
0
v33
v69
0
v33
v70
0
v33
v71
0
v33
v72
0
v33
v73
0
v33
v74
0
v33
v75
0
v33
v76
0
v33
v77
0
v33
v78
0
v33
v79
0
v33
v80
0
v33
v81
0
v33
v82
0
v33
v83
0
v33
v84
0
v33
v85
0
v33
v86
0
v33
v87
0
v33
v88
0
v33
v89
0
v34
v35
0
v34
v36
0
v34
v37
0
v34
v38
0
v34
v39
0
v34
v40
0
v34
v41
0
v34
v42
0
v34
v43
0
v34
v44
0
v34
v45
0
v34
v46
0
v34
v47
0
v34
v48
0
v34
v49
0
v34
v50
0
v34
v51
0
v34
v52
0
v34
v53
0
v34
v54
0
v34
v55
0
v34
v56
0
v34
v57
0
v34
v58
0
v34
v59
0
v34
v60
0
v34
v61
0
v34
v62
0
v34
v63
0
v34
v64
0
v34
v65
0
v34
v66
0
v34
v67
0
v34
v68
0
v34
v69
0
v34
v70
0
v34
v71
0
v34
v72
0
v34
v73
0
v34
v74
0
v34
v75
0
v34
v76
0
v34
v77
0
v34
v78
0
v34
v79
0
v34
v80
0
v34
v81
0
v34
v82
0
v34
v83
0
v34
v84
0
v34
v85
0
v34
v86
0
v34
v87
0
v34
v88
0
v34
v89
0
v35
v36
0
v35
v37
0
v35
v38
0
v35
v39
0
v35
v40
0
v35
v41
0
v35
v42
0
v35
v43
0
v35
v44
0
v35
v45
0
v35
v46
0
v35
v47
0
v35
v48
0
v35
v49
0
v35
v50
0
v35
v51
0
v35
v52
0
v35
v53
0
v35
v54
0
v35
v55
0
v35
v56
0
v35
v57
0
v35
v58
0
v35
v59
0
v35
v60
0
v35
v61
0
v35
v62
0
v35
v63
0
v35
v64
0
v35
v65
0
v35
v66
0
v35
v67
0
v35
v68
0
v35
v69
0
v35
v70
0
v35
v71
0
v35
v72
0
v35
v73
0
v35
v74
0
v35
v75
0
v35
v76
0
v35
v77
0
v35
v78
0
v35
v79
0
v35
v80
0
v35
v81
0
v35
v82
0
v35
v83
0
v35
v84
0
v35
v85
0
v35
v86
0
v35
v87
0
v35
v88
0
v35
v89
0
v36
v37
0
v36
v38
0
v36
v39
0
v36
v40
0
v36
v41
0
v36
v42
0
v36
v43
0
v36
v44
0
v36
v45
0
v36
v46
0
v36
v47
0
v36
v48
0
v36
v49
0
v36
v50
0
v36
v51
0
v36
v52
0
v36
v53
0
v36
v54
0
v36
v55
0
v36
v56
0
v36
v57
0
v36
v58
0
v36
v59
0
v36
v60
0
v36
v61
0
v36
v62
0
v36
v63
0
v36
v64
0
v36
v65
0
v36
v66
0
v36
v67
0
v36
v68
0
v36
v69
0
v36
v70
0
v36
v71
0
v36
v72
0
v36
v73
0
v36
v74
0
v36
v75
0
v36
v76
0
v36
v77
0
v36
v78
0
v36
v79
0
v36
v80
0
v36
v81
0
v36
v82
0
v36
v83
0
v36
v84
0
v36
v85
0
v36
v86
0
v36
v87
0
v36
v88
0
v36
v89
0
v37
v38
0
v37
v39
0
v37
v40
0
v37
v41
0
v37
v42
0
v37
v43
0
v37
v44
0
v37
v45
0
v37
v46
0
v37
v47
0
v37
v48
0
v37
v49
0
v37
v50
0
v37
v51
0
v37
v52
0
v37
v53
0
v37
v54
0
v37
v55
0
v37
v56
0
v37
v57
0
v37
v58
0
v37
v59
0
v37
v60
0
v37
v61
0
v37
v62
0
v37
v63
0
v37
v64
0
v37
v65
0
v37
v66
0
v37
v67
0
v37
v68
0
v37
v69
0
v37
v70
0
v37
v71
0
v37
v72
0
v37
v73
0
v37
v74
0
v37
v75
0
v37
v76
0
v37
v77
0
v37
v78
0
v37
v79
0
v37
v80
0
v37
v81
0
v37
v82
0
v37
v83
0
v37
v84
0
v37
v85
0
v37
v86
0
v37
v87
0
v37
v88
0
v37
v89
0
v38
v39
0
v38
v40
0
v38
v41
0
v38
v42
0
v38
v43
0
v38
v44
0
v38
v45
0
v38
v46
0
v38
v47
0
v38
v48
0
v38
v49
0
v38
v50
0
v38
v51
0
v38
v52
0
v38
v53
0
v38
v54
0
v38
v55
0
v38
v56
0
v38
v57
0
v38
v58
0
v38
v59
0
v38
v60
0
v38
v61
0
v38
v62
0
v38
v63
0
v38
v64
0
v38
v65
0
v38
v66
0
v38
v67
0
v38
v68
0
v38
v69
0
v38
v70
0
v38
v71
0
v38
v72
0
v38
v73
0
v38
v74
0
v38
v75
0
v38
v76
0
v38
v77
0
v38
v78
0
v38
v79
0
v38
v80
0
v38
v81
0
v38
v82
0
v38
v83
0
v38
v84
0
v38
v85
0
v38
v86
0
v38
v87
0
v38
v88
0
v38
v89
0
v39
v40
0
v39
v41
0
v39
v42
0
v39
v43
0
v39
v44
0
v39
v45
0
v39
v46
0
v39
v47
0
v39
v48
0
v39
v49
0
v39
v50
0
v39
v51
0
v39
v52
0
v39
v53
0
v39
v54
0
v39
v55
0
v39
v56
0
v39
v57
0
v39
v58
0
v39
v59
0
v39
v60
0
v39
v61
0
v39
v62
0
v39
v63
0
v39
v64
0
v39
v65
0
v39
v66
0
v39
v67
0
v39
v68
0
v39
v69
0
v39
v70
0
v39
v71
0
v39
v72
0
v39
v73
0
v39
v74
0
v39
v75
0
v39
v76
0
v39
v77
0
v39
v78
0
v39
v79
0
v39
v80
0
v39
v81
0
v39
v82
0
v39
v83
0
v39
v84
0
v39
v85
0
v39
v86
0
v39
v87
0
v39
v88
0
v39
v89
0
v40
v41
0
v40
v42
0
v40
v43
0
v40
v44
0
v40
v45
0
v40
v46
0
v40
v47
0
v40
v48
0
v40
v49
0
v40
v50
0
v40
v51
0
v40
v52
0
v40
v53
0
v40
v54
0
v40
v55
0
v40
v56
0
v40
v57
0
v40
v58
0
v40
v59
0
v40
v60
0
v40
v61
0
v40
v62
0
v40
v63
0
v40
v64
0
v40
v65
0
v40
v66
0
v40
v67
0
v40
v68
0
v40
v69
0
v40
v70
0
v40
v71
0
v40
v72
0
v40
v73
0
v40
v74
0
v40
v75
0
v40
v76
0
v40
v77
0
v40
v78
0
v40
v79
0
v40
v80
0
v40
v81
0
v40
v82
0
v40
v83
0
v40
v84
0
v40
v85
0
v40
v86
0
v40
v87
0
v40
v88
0
v40
v89
0
v41
v42
0
v41
v43
0
v41
v44
0
v41
v45
0
v41
v46
0
v41
v47
0
v41
v48
0
v41
v49
0
v41
v50
0
v41
v51
0
v41
v52
0
v41
v53
0
v41
v54
0
v41
v55
0
v41
v56
0
v41
v57
0
v41
v58
0
v41
v59
0
v41
v60
0
v41
v61
0
v41
v62
0
v41
v63
0
v41
v64
0
v41
v65
0
v41
v66
0
v41
v67
0
v41
v68
0
v41
v69
0
v41
v70
0
v41
v71
0
v41
v72
0
v41
v73
0
v41
v74
0
v41
v75
0
v41
v76
0
v41
v77
0
v41
v78
0
v41
v79
0
v41
v80
0
v41
v81
0
v41
v82
0
v41
v83
0
v41
v84
0
v41
v85
0
v41
v86
0
v41
v87
0
v41
v88
0
v41
v89
0
v42
v43
0
v42
v44
0
v42
v45
0
v42
v46
0
v42
v47
0
v42
v48
0
v42
v49
0
v42
v50
0
v42
v51
0
v42
v52
0
v42
v53
0
v42
v54
0
v42
v55
0
v42
v56
0
v42
v57
0
v42
v58
0
v42
v59
0
v42
v60
0
v42
v61
0
v42
v62
0
v42
v63
0
v42
v64
0
v42
v65
0
v42
v66
0
v42
v67
0
v42
v68
0
v42
v69
0
v42
v70
0
v42
v71
0
v42
v72
0
v42
v73
0
v42
v74
0
v42
v75
0
v42
v76
0
v42
v77
0
v42
v78
0
v42
v79
0
v42
v80
0
v42
v81
0
v42
v82
0
v42
v83
0
v42
v84
0
v42
v85
0
v42
v86
0
v42
v87
0
v42
v88
0
v42
v89
0
v43
v44
0
v43
v45
0
v43
v46
0
v43
v47
0
v43
v48
0
v43
v49
0
v43
v50
0
v43
v51
0
v43
v52
0
v43
v53
0
v43
v54
0
v43
v55
0
v43
v56
0
v43
v57
0
v43
v58
0
v43
v59
0
v43
v60
0
v43
v61
0
v43
v62
0
v43
v63
0
v43
v64
0
v43
v65
0
v43
v66
0
v43
v67
0
v43
v68
0
v43
v69
0
v43
v70
0
v43
v71
0
v43
v72
0
v43
v73
0
v43
v74
0
v43
v75
0
v43
v76
0
v43
v77
0
v43
v78
0
v43
v79
0
v43
v80
0
v43
v81
0
v43
v82
0
v43
v83
0
v43
v84
0
v43
v85
0
v43
v86
0
v43
v87
0
v43
v88
0
v43
v89
0
v44
v45
0
v44
v46
0
v44
v47
0
v44
v48
0
v44
v49
0
v44
v50
0
v44
v51
0
v44
v52
0
v44
v53
0
v44
v54
0
v44
v55
0
v44
v56
0
v44
v57
0
v44
v58
0
v44
v59
0
v44
v60
0
v44
v61
0
v44
v62
0
v44
v63
0
v44
v64
0
v44
v65
0
v44
v66
0
v44
v67
0
v44
v68
0
v44
v69
0
v44
v70
0
v44
v71
0
v44
v72
0
v44
v73
0
v44
v74
0
v44
v75
0
v44
v76
0
v44
v77
0
v44
v78
0
v44
v79
0
v44
v80
0
v44
v81
0
v44
v82
0
v44
v83
0
v44
v84
0
v44
v85
0
v44
v86
0
v44
v87
0
v44
v88
0
v44
v89
0
v45
v46
0
v45
v47
0
v45
v48
0
v45
v49
0
v45
v50
0
v45
v51
0
v45
v52
0
v45
v53
0
v45
v54
0
v45
v55
0
v45
v56
0
v45
v57
0
v45
v58
0
v45
v59
0
v45
v60
0
v45
v61
0
v45
v62
0
v45
v63
0
v45
v64
0
v45
v65
0
v45
v66
0
v45
v67
0
v45
v68
0
v45
v69
0
v45
v70
0
v45
v71
0
v45
v72
0
v45
v73
0
v45
v74
0
v45
v75
0
v45
v76
0
v45
v77
0
v45
v78
0
v45
v79
0
v45
v80
0
v45
v81
0
v45
v82
0
v45
v83
0
v45
v84
0
v45
v85
0
v45
v86
0
v45
v87
0
v45
v88
0
v45
v89
0
v46
v47
0
v46
v48
0
v46
v49
0
v46
v50
0
v46
v51
0
v46
v52
0
v46
v53
0
v46
v54
0
v46
v55
0
v46
v56
0
v46
v57
0
v46
v58
0
v46
v59
0
v46
v60
0
v46
v61
0
v46
v62
0
v46
v63
0
v46
v64
0
v46
v65
0
v46
v66
0
v46
v67
0
v46
v68
0
v46
v69
0
v46
v70
0
v46
v71
0
v46
v72
0
v46
v73
0
v46
v74
0
v46
v75
0
v46
v76
0
v46
v77
0
v46
v78
0
v46
v79
0
v46
v80
0
v46
v81
0
v46
v82
0
v46
v83
0
v46
v84
0
v46
v85
0
v46
v86
0
v46
v87
0
v46
v88
0
v46
v89
0
v47
v48
0
v47
v49
0
v47
v50
0
v47
v51
0
v47
v52
0
v47
v53
0
v47
v54
0
v47
v55
0
v47
v56
0
v47
v57
0
v47
v58
0
v47
v59
0
v47
v60
0
v47
v61
0
v47
v62
0
v47
v63
0
v47
v64
0
v47
v65
0
v47
v66
0
v47
v67
0
v47
v68
0
v47
v69
0
v47
v70
0
v47
v71
0
v47
v72
0
v47
v73
0
v47
v74
0
v47
v75
0
v47
v76
0
v47
v77
0
v47
v78
0
v47
v79
0
v47
v80
0
v47
v81
0
v47
v82
0
v47
v83
0
v47
v84
0
v47
v85
0
v47
v86
0
v47
v87
0
v47
v88
0
v47
v89
0
v48
v49
0
v48
v50
0
v48
v51
0
v48
v52
0
v48
v53
0
v48
v54
0
v48
v55
0
v48
v56
0
v48
v57
0
v48
v58
0
v48
v59
0
v48
v60
0
v48
v61
0
v48
v62
0
v48
v63
0
v48
v64
0
v48
v65
0
v48
v66
0
v48
v67
0
v48
v68
0
v48
v69
0
v48
v70
0
v48
v71
0
v48
v72
0
v48
v73
0
v48
v74
0
v48
v75
0
v48
v76
0
v48
v77
0
v48
v78
0
v48
v79
0
v48
v80
0
v48
v81
0
v48
v82
0
v48
v83
0
v48
v84
0
v48
v85
0
v48
v86
0
v48
v87
0
v48
v88
0
v48
v89
0
v49
v50
0
v49
v51
0
v49
v52
0
v49
v53
0
v49
v54
0
v49
v55
0
v49
v56
0
v49
v57
0
v49
v58
0
v49
v59
0
v49
v60
0
v49
v61
0
v49
v62
0
v49
v63
0
v49
v64
0
v49
v65
0
v49
v66
0
v49
v67
0
v49
v68
0
v49
v69
0
v49
v70
0
v49
v71
0
v49
v72
0
v49
v73
0
v49
v74
0
v49
v75
0
v49
v76
0
v49
v77
0
v49
v78
0
v49
v79
0
v49
v80
0
v49
v81
0
v49
v82
0
v49
v83
0
v49
v84
0
v49
v85
0
v49
v86
0
v49
v87
0
v49
v88
0
v49
v89
0
v50
v51
0
v50
v52
0
v50
v53
0
v50
v54
0
v50
v55
0
v50
v56
0
v50
v57
0
v50
v58
0
v50
v59
0
v50
v60
0
v50
v61
0
v50
v62
0
v50
v63
0
v50
v64
0
v50
v65
0
v50
v66
0
v50
v67
0
v50
v68
0
v50
v69
0
v50
v70
0
v50
v71
0
v50
v72
0
v50
v73
0
v50
v74
0
v50
v75
0
v50
v76
0
v50
v77
0
v50
v78
0
v50
v79
0
v50
v80
0
v50
v81
0
v50
v82
0
v50
v83
0
v50
v84
0
v50
v85
0
v50
v86
0
v50
v87
0
v50
v88
0
v50
v89
0
v51
v52
0
v51
v53
0
v51
v54
0
v51
v55
0
v51
v56
0
v51
v57
0
v51
v58
0
v51
v59
0
v51
v60
0
v51
v61
0
v51
v62
0
v51
v63
0
v51
v64
0
v51
v65
0
v51
v66
0
v51
v67
0
v51
v68
0
v51
v69
0
v51
v70
0
v51
v71
0
v51
v72
0
v51
v73
0
v51
v74
0
v51
v75
0
v51
v76
0
v51
v77
0
v51
v78
0
v51
v79
0
v51
v80
0
v51
v81
0
v51
v82
0
v51
v83
0
v51
v84
0
v51
v85
0
v51
v86
0
v51
v87
0
v51
v88
0
v51
v89
0
v52
v53
0
v52
v54
0
v52
v55
0
v52
v56
0
v52
v57
0
v52
v58
0
v52
v59
0
v52
v60
0
v52
v61
0
v52
v62
0
v52
v63
0
v52
v64
0
v52
v65
0
v52
v66
0
v52
v67
0
v52
v68
0
v52
v69
0
v52
v70
0
v52
v71
0
v52
v72
0
v52
v73
0
v52
v74
0
v52
v75
0
v52
v76
0
v52
v77
0
v52
v78
0
v52
v79
0
v52
v80
0
v52
v81
0
v52
v82
0
v52
v83
0
v52
v84
0
v52
v85
0
v52
v86
0
v52
v87
0
v52
v88
0
v52
v89
0
v53
v54
0
v53
v55
0
v53
v56
0
v53
v57
0
v53
v58
0
v53
v59
0
v53
v60
0
v53
v61
0
v53
v62
0
v53
v63
0
v53
v64
0
v53
v65
0
v53
v66
0
v53
v67
0
v53
v68
0
v53
v69
0
v53
v70
0
v53
v71
0
v53
v72
0
v53
v73
0
v53
v74
0
v53
v75
0
v53
v76
0
v53
v77
0
v53
v78
0
v53
v79
0
v53
v80
0
v53
v81
0
v53
v82
0
v53
v83
0
v53
v84
0
v53
v85
0
v53
v86
0
v53
v87
0
v53
v88
0
v53
v89
0
v54
v55
0
v54
v56
0
v54
v57
0
v54
v58
0
v54
v59
0
v54
v60
0
v54
v61
0
v54
v62
0
v54
v63
0
v54
v64
0
v54
v65
0
v54
v66
0
v54
v67
0
v54
v68
0
v54
v69
0
v54
v70
0
v54
v71
0
v54
v72
0
v54
v73
0
v54
v74
0
v54
v75
0
v54
v76
0
v54
v77
0
v54
v78
0
v54
v79
0
v54
v80
0
v54
v81
0
v54
v82
0
v54
v83
0
v54
v84
0
v54
v85
0
v54
v86
0
v54
v87
0
v54
v88
0
v54
v89
0
v55
v56
0
v55
v57
0
v55
v58
0
v55
v59
0
v55
v60
0
v55
v61
0
v55
v62
0
v55
v63
0
v55
v64
0
v55
v65
0
v55
v66
0
v55
v67
0
v55
v68
0
v55
v69
0
v55
v70
0
v55
v71
0
v55
v72
0
v55
v73
0
v55
v74
0
v55
v75
0
v55
v76
0
v55
v77
0
v55
v78
0
v55
v79
0
v55
v80
0
v55
v81
0
v55
v82
0
v55
v83
0
v55
v84
0
v55
v85
0
v55
v86
0
v55
v87
0
v55
v88
0
v55
v89
0
v56
v57
0
v56
v58
0
v56
v59
0
v56
v60
0
v56
v61
0
v56
v62
0
v56
v63
0
v56
v64
0
v56
v65
0
v56
v66
0
v56
v67
0
v56
v68
0
v56
v69
0
v56
v70
0
v56
v71
0
v56
v72
0
v56
v73
0
v56
v74
0
v56
v75
0
v56
v76
0
v56
v77
0
v56
v78
0
v56
v79
0
v56
v80
0
v56
v81
0
v56
v82
0
v56
v83
0
v56
v84
0
v56
v85
0
v56
v86
0
v56
v87
0
v56
v88
0
v56
v89
0
v57
v58
0
v57
v59
0
v57
v60
0
v57
v61
0
v57
v62
0
v57
v63
0
v57
v64
0
v57
v65
0
v57
v66
0
v57
v67
0
v57
v68
0
v57
v69
0
v57
v70
0
v57
v71
0
v57
v72
0
v57
v73
0
v57
v74
0
v57
v75
0
v57
v76
0
v57
v77
0
v57
v78
0
v57
v79
0
v57
v80
0
v57
v81
0
v57
v82
0
v57
v83
0
v57
v84
0
v57
v85
0
v57
v86
0
v57
v87
0
v57
v88
0
v57
v89
0
v58
v59
0
v58
v60
0
v58
v61
0
v58
v62
0
v58
v63
0
v58
v64
0
v58
v65
0
v58
v66
0
v58
v67
0
v58
v68
0
v58
v69
0
v58
v70
0
v58
v71
0
v58
v72
0
v58
v73
0
v58
v74
0
v58
v75
0
v58
v76
0
v58
v77
0
v58
v78
0
v58
v79
0
v58
v80
0
v58
v81
0
v58
v82
0
v58
v83
0
v58
v84
0
v58
v85
0
v58
v86
0
v58
v87
0
v58
v88
0
v58
v89
0
v59
v60
0
v59
v61
0
v59
v62
0
v59
v63
0
v59
v64
0
v59
v65
0
v59
v66
0
v59
v67
0
v59
v68
0
v59
v69
0
v59
v70
0
v59
v71
0
v59
v72
0
v59
v73
0
v59
v74
0
v59
v75
0
v59
v76
0
v59
v77
0
v59
v78
0
v59
v79
0
v59
v80
0
v59
v81
0
v59
v82
0
v59
v83
0
v59
v84
0
v59
v85
0
v59
v86
0
v59
v87
0
v59
v88
0
v59
v89
0
v60
v61
0
v60
v62
0
v60
v63
0
v60
v64
0
v60
v65
0
v60
v66
0
v60
v67
0
v60
v68
0
v60
v69
0
v60
v70
0
v60
v71
0
v60
v72
0
v60
v73
0
v60
v74
0
v60
v75
0
v60
v76
0
v60
v77
0
v60
v78
0
v60
v79
0
v60
v80
0
v60
v81
0
v60
v82
0
v60
v83
0
v60
v84
0
v60
v85
0
v60
v86
0
v60
v87
0
v60
v88
0
v60
v89
0
v61
v62
0
v61
v63
0
v61
v64
0
v61
v65
0
v61
v66
0
v61
v67
0
v61
v68
0
v61
v69
0
v61
v70
0
v61
v71
0
v61
v72
0
v61
v73
0
v61
v74
0
v61
v75
0
v61
v76
0
v61
v77
0
v61
v78
0
v61
v79
0
v61
v80
0
v61
v81
0
v61
v82
0
v61
v83
0
v61
v84
0
v61
v85
0
v61
v86
0
v61
v87
0
v61
v88
0
v61
v89
0
v62
v63
0
v62
v64
0
v62
v65
0
v62
v66
0
v62
v67
0
v62
v68
0
v62
v69
0
v62
v70
0
v62
v71
0
v62
v72
0
v62
v73
0
v62
v74
0
v62
v75
0
v62
v76
0
v62
v77
0
v62
v78
0
v62
v79
0
v62
v80
0
v62
v81
0
v62
v82
0
v62
v83
0
v62
v84
0
v62
v85
0
v62
v86
0
v62
v87
0
v62
v88
0
v62
v89
0
v63
v64
0
v63
v65
0
v63
v66
0
v63
v67
0
v63
v68
0
v63
v69
0
v63
v70
0
v63
v71
0
v63
v72
0
v63
v73
0
v63
v74
0
v63
v75
0
v63
v76
0
v63
v77
0
v63
v78
0
v63
v79
0
v63
v80
0
v63
v81
0
v63
v82
0
v63
v83
0
v63
v84
0
v63
v85
0
v63
v86
0
v63
v87
0
v63
v88
0
v63
v89
0
v64
v65
0
v64
v66
0
v64
v67
0
v64
v68
0
v64
v69
0
v64
v70
0
v64
v71
0
v64
v72
0
v64
v73
0
v64
v74
0
v64
v75
0
v64
v76
0
v64
v77
0
v64
v78
0
v64
v79
0
v64
v80
0
v64
v81
0
v64
v82
0
v64
v83
0
v64
v84
0
v64
v85
0
v64
v86
0
v64
v87
0
v64
v88
0
v64
v89
0
v65
v66
0
v65
v67
0
v65
v68
0
v65
v69
0
v65
v70
0
v65
v71
0
v65
v72
0
v65
v73
0
v65
v74
0
v65
v75
0
v65
v76
0
v65
v77
0
v65
v78
0
v65
v79
0
v65
v80
0
v65
v81
0
v65
v82
0
v65
v83
0
v65
v84
0
v65
v85
0
v65
v86
0
v65
v87
0
v65
v88
0
v65
v89
0
v66
v67
0
v66
v68
0
v66
v69
0
v66
v70
0
v66
v71
0
v66
v72
0
v66
v73
0
v66
v74
0
v66
v75
0
v66
v76
0
v66
v77
0
v66
v78
0
v66
v79
0
v66
v80
0
v66
v81
0
v66
v82
0
v66
v83
0
v66
v84
0
v66
v85
0
v66
v86
0
v66
v87
0
v66
v88
0
v66
v89
0
v67
v68
0
v67
v69
0
v67
v70
0
v67
v71
0
v67
v72
0
v67
v73
0
v67
v74
0
v67
v75
0
v67
v76
0
v67
v77
0
v67
v78
0
v67
v79
0
v67
v80
0
v67
v81
0
v67
v82
0
v67
v83
0
v67
v84
0
v67
v85
0
v67
v86
0
v67
v87
0
v67
v88
0
v67
v89
0
v68
v69
0
v68
v70
0
v68
v71
0
v68
v72
0
v68
v73
0
v68
v74
0
v68
v75
0
v68
v76
0
v68
v77
0
v68
v78
0
v68
v79
0
v68
v80
0
v68
v81
0
v68
v82
0
v68
v83
0
v68
v84
0
v68
v85
0
v68
v86
0
v68
v87
0
v68
v88
0
v68
v89
0
v69
v70
0
v69
v71
0
v69
v72
0
v69
v73
0
v69
v74
0
v69
v75
0
v69
v76
0
v69
v77
0
v69
v78
0
v69
v79
0
v69
v80
0
v69
v81
0
v69
v82
0
v69
v83
0
v69
v84
0
v69
v85
0
v69
v86
0
v69
v87
0
v69
v88
0
v69
v89
0
v70
v71
0
v70
v72
0
v70
v73
0
v70
v74
0
v70
v75
0
v70
v76
0
v70
v77
0
v70
v78
0
v70
v79
0
v70
v80
0
v70
v81
0
v70
v82
0
v70
v83
0
v70
v84
0
v70
v85
0
v70
v86
0
v70
v87
0
v70
v88
0
v70
v89
0
v71
v72
0
v71
v73
0
v71
v74
0
v71
v75
0
v71
v76
0
v71
v77
0
v71
v78
0
v71
v79
0
v71
v80
0
v71
v81
0
v71
v82
0
v71
v83
0
v71
v84
0
v71
v85
0
v71
v86
0
v71
v87
0
v71
v88
0
v71
v89
0
v72
v73
0
v72
v74
0
v72
v75
0
v72
v76
0
v72
v77
0
v72
v78
0
v72
v79
0
v72
v80
0
v72
v81
0
v72
v82
0
v72
v83
0
v72
v84
0
v72
v85
0
v72
v86
0
v72
v87
0
v72
v88
0
v72
v89
0
v73
v74
0
v73
v75
0
v73
v76
0
v73
v77
0
v73
v78
0
v73
v79
0
v73
v80
0
v73
v81
0
v73
v82
0
v73
v83
0
v73
v84
0
v73
v85
0
v73
v86
0
v73
v87
0
v73
v88
0
v73
v89
0
v74
v75
0
v74
v76
0
v74
v77
0
v74
v78
0
v74
v79
0
v74
v80
0
v74
v81
0
v74
v82
0
v74
v83
0
v74
v84
0
v74
v85
0
v74
v86
0
v74
v87
0
v74
v88
0
v74
v89
0
v75
v76
0
v75
v77
0
v75
v78
0
v75
v79
0
v75
v80
0
v75
v81
0
v75
v82
0
v75
v83
0
v75
v84
0
v75
v85
0
v75
v86
0
v75
v87
0
v75
v88
0
v75
v89
0
v76
v77
0
v76
v78
0
v76
v79
0
v76
v80
0
v76
v81
0
v76
v82
0
v76
v83
0
v76
v84
0
v76
v85
0
v76
v86
0
v76
v87
0
v76
v88
0
v76
v89
0
v77
v78
0
v77
v79
0
v77
v80
0
v77
v81
0
v77
v82
0
v77
v83
0
v77
v84
0
v77
v85
0
v77
v86
0
v77
v87
0
v77
v88
0
v77
v89
0
v78
v79
0
v78
v80
0
v78
v81
0
v78
v82
0
v78
v83
0
v78
v84
0
v78
v85
0
v78
v86
0
v78
v87
0
v78
v88
0
v78
v89
0
v79
v80
0
v79
v81
0
v79
v82
0
v79
v83
0
v79
v84
0
v79
v85
0
v79
v86
0
v79
v87
0
v79
v88
0
v79
v89
0
v80
v81
0
v80
v82
0
v80
v83
0
v80
v84
0
v80
v85
0
v80
v86
0
v80
v87
0
v80
v88
0
v80
v89
0
v81
v82
0
v81
v83
0
v81
v84
0
v81
v85
0
v81
v86
0
v81
v87
0
v81
v88
0
v81
v89
0
v82
v83
0
v82
v84
0
v82
v85
0
v82
v86
0
v82
v87
0
v82
v88
0
v82
v89
0
v83
v84
0
v83
v85
0
v83
v86
0
v83
v87
0
v83
v88
0
v83
v89
0
v84
v85
0
v84
v86
0
v84
v87
0
v84
v88
0
v84
v89
0
v85
v86
0
v85
v87
0
v85
v88
0
v85
v89
0
v86
v87
0
v86
v88
0
v86
v89
0
v87
v88
0
v87
v89
0
v88
v89
0
