90
v0
0
0
v1
1
0
v2
2
0
v3
3
0
v4
4
0
v5
5
0
v6
6
0
v7
7
0
v8
8
0
v9
9
0
v10
10
0
v11
11
0
v12
12
0
v13
13
0
v14
14
0
v15
15
0
v16
16
0
v17
17
0
v18
18
0
v19
19
0
v20
20
0
v21
21
0
v22
22
0
v23
23
0
v24
24
0
v25
25
0
v26
26
0
v27
27
0
v28
28
0
v29
29
0
v30
30
0
v31
31
0
v32
32
0
v33
33
0
v34
34
0
v35
35
0
v36
36
0
v37
37
0
v38
38
0
v39
39
0
v40
40
0
v41
41
0
v42
42
0
v43
43
0
v44
44
0
v45
45
0
v46
46
0
v47
47
0
v48
48
0
v49
49
0
v50
50
0
v51
51
0
v52
52
0
v53
53
0
v54
54
0
v55
55
0
v56
56
0
v57
57
0
v58
58
0
v59
59
0
v60
60
0
v61
61
0
v62
62
0
v63
63
0
v64
64
0
v65
65
0
v66
66
0
v67
67
0
v68
68
0
v69
69
0
v70
70
0
v71
71
0
v72
72
0
v73
73
0
v74
74
0
v75
75
0
v76
76
0
v77
77
0
v78
78
0
v79
79
0
v80
80
0
v81
81
0
v82
82
0
v83
83
0
v84
84
0
v85
85
0
v86
86
0
v87
87
0
v88
88
0
v89
89
0

0
